      1	can
      2	shoe
      3	fish3
      4	babycarriage
      5	bird5
      6	fish6
      7	fish7
      8	fish8
      9	seashell9
     10	crab
     11	fish11
     12	fish12
     13	octopus
     14	lobster
     15	seastar
     16	seashell16
     17	fish17
     18	seahorse
     19	computermouse19
     20	toymonkey    
     31	pineapple
     32	foodcup
     33	ginger
     34	drawer
     35	numpad
     36	m&m
     37	cocacola37
     38	juicebottle
     39	cornchips
     40	pikachu
     41	toygrabber
     42	elephant
     43	minion
     44	minniemouse
     45	robot
     46	toydog46
     47	toyrobot
     48	papaya
     49	bamboo
     50	pepper
	 51	cucumber
     52	egg
     53	chickenleg
     54	mushroom54
     55	tomato
     56	beans
     57	stick
     58	toothpick
     59	broccoli
     60	corn
     61	jeep
     62	pickuptruck62
     63	classiccar
     64	walkingman
     65	sign
     66	bird66
     67	electriccar
     68	caravan
     69	fuelsign
     70	pickuptruck70
     71	minitruck
     72	trafficlight
     73	motorcyclehelmet
     74	bicycle
     75	swimmingbagel
     76	americanflag
     77	motorcycle77
     78	postbox
     79	firehydrant
     80	speaker80
     81	bus
     82	parksign
     83	canadianflag
     84	turnsign
     85	hand
     86	dress
     87	ladybug
     88	swing
     89	wallclock89
     90	ventilator
     91	food
     92	building
     93	umbrella
     94	kettle94
     95	plug95
     96	sedancar
     97	kettle97
     98	mirror
     99	kettle99
    100	apple
    101	frame101
    102	wallet
    103	wineglass
    104	winebottle
    105	book
    106	desklamp
    107	books
    108	bucket
    109	bowl
    110	wood
    111	lamp111
    112	bench
    113	horse
    114	plant
    115	catstatue
    116	plug116
    117	toothbrush
    118	toiletpaper118
    119	candle
    120	bathrobe
    121	slipper121
    122	ribbon
    123	sink
    124	hat124
    125	flower
    126	doorkey
    127	frame127
    128	guitar
    129	hat129
    130	mushroom130
    131	lamp131
    132	toyjeep
    133	coffeecup
    134	clarinet
    135	windmilltoy
    136	alarmclock136
    137	vase
    138	pencilbox138
    139	teddybear
    140	stool
    141	chair
    142	moon
    143	trashbin
    144	jacket
    145	baseball
    146	lighthousetoy
    147	football
    148	skateboard
    149	watercup
    150	carkey
    151	watch
    152	calculator
    153	cupstand
    154	computermouse154
    155	band
    156	correctionfluid
    157	scissors157
    158	sharpener
    159	disc
    160	cocacola160