t023.png hatchback+car
t024.png country+flag
t020.png walking+man
t008.png goldfish
t010.png crab
t011.png octopus
t009.png goldfish
t012.png blue+tang+fish
t022.png robot
t003.png goldfish
t017.png emperor+angelfish
t019.png computer+mouse
t004.png octopus
t021.png walking+man
t001.png robot
t007.png clownfish
t005.png seahorse
t014.png lobster
t015.png seastar
t013.png octopus
t016.png stingray+fish
t006.png clownfish
t018.png seahorse
t002.png running+shoe
